MadeOf Wood
NoCull

PhongEnvironment
{
	AlphaToCoverage
	DiffuseMap C:/Users/Luis/Desktop/characters/deeay/models/deeayhair_d.tga
	NormalMap C:/Users/Luis/Desktop/characters/deeay/models/deeayhair_n.tga
	SpecularMap C:/Users/Luis/Desktop/characters/deeay/models/deeayhair_s.tga
	UseSpecular
	SpecularExponent 13.8438
	SpecularColor 1 1 1
	SpecularIntensity 0.7103
}

