MadeOf Wood

PhongEnvironment
{
	DiffuseMap C:/Users/Luis/Desktop/characters/deeay/models/deeayhead_d.tga
	NormalMap C:/Users/Luis/Desktop/characters/deeay/models/deeayhead_n.tga
	SpecularMap C:/Users/Luis/Desktop/characters/deeay/models/deeayhead_s.tga
	UseSpecular
	SpecularExponent 27.2101
	SpecularColor 1 1 1
	SpecularIntensity 0.86942
}

