# 3ds Max Wavefront OBJ Exporter v0.97b - (c)2007 guruware
# File Created: 25.01.2015 16:20:24

newmtl Material__504
	Ns 10.000000
	Ni 1.500000
	d 1.000000
	Tr 0.000000
	Tf 1.000000 1.000000 1.000000 
	illum 2
	Ka 0.588000 0.588000 0.588000
	Kd 0.588000 0.588000 0.588000
	Ks 0.000000 0.000000 0.000000
	Ke 0.000000 0.000000 0.000000
	map_Ka C:\Program Files (x86)\Vogster Entertainment\CrimeCraft\CrimeCraftGame\CookedPC\Packages\UmodelExport\Characters_Female_combocloth\Texture2D\T_CH_FNPCMilitiaWoman_cm.tga
	map_Kd C:\Program Files (x86)\Vogster Entertainment\CrimeCraft\CrimeCraftGame\CookedPC\Packages\UmodelExport\Characters_Female_combocloth\Texture2D\T_CH_FNPCMilitiaWoman_cm.tga
